{
	"$schema": "https://json.schemastore.org/tsconfig",
	"extends": "./base.json",
	"compilerOptions": {
		"jsx": "react-jsx",
		"lib": ["DOM", "DOM.Iterable", "ESNext"],
		"module": "ESNext",
		"target": "ES6"
	}
}
